…
Total distance is not the sum of TrackerDistance and
LoggedActivitiesDistance, as one could assume. Rather it seems to be the
sum of the ActiveDistances columns. Lack of metadata is killing me here.

``` r
filter(dailyActivity, TotalDistance != (LoggedActivitiesDistance + TrackerDistance))
```

    ## # A tibble: 32 x 15
    ##    Id         Activity~1 Total~2 Total~3 Track~4 Logge~5 VeryA~6 Moder~7 Light~8
    ##    <chr>      <date>       <dbl>   <dbl>   <dbl>   <dbl>   <dbl>   <dbl>   <dbl>
    ##  1 6775888955 2016-04-26    7091    5.27    5.27    1.96    3.48   0.870   0.730
    ##  2 6962181067 2016-04-21   11835    9.71    7.88    4.08    3.99   2.10    3.51 
    ##  3 6962181067 2016-04-25   13239    9.27    9.08    2.79    3.02   1.68    4.46 
    ##  4 6962181067 2016-05-09   12342    8.72    8.68    3.17    3.90   1.18    3.65 
    ##  5 7007744171 2016-04-12   14172   10.3     9.48    4.87    4.5    0.380   5.41 
    ##  6 7007744171 2016-04-13   12862    9.65    8.60    4.85    4.61   0.560   4.48 
    ##  7 7007744171 2016-04-14   11179    8.24    7.48    3.29    2.95   0.340   4.96 
    ##  8 7007744171 2016-04-18   14816   11.0     9.91    4.93    3.79   2.12    5.05 
    ##  9 7007744171 2016-04-19   14194   10.5     9.5     4.94    4.41   0.760   5.31 
    ## 10 7007744171 2016-04-20   15566   11.3    10.4     4.92    4.79   0.670   5.86 
    ## # ... with 22 more rows, 6 more variables: SedentaryActiveDistance <dbl>,
    ## #   VeryActiveMinutes <dbl>, FairlyActiveMinutes <dbl>,
    ## #   LightlyActiveMinutes <dbl>, SedentaryMinutes <dbl>, Calories <dbl>, and
    ## #   abbreviated variable names 1: ActivityDate, 2: TotalSteps,
    ## #   3: TotalDistance, 4: TrackerDistance, 5: LoggedActivitiesDistance,
    ## #   6: VeryActiveDistance, 7: ModeratelyActiveDistance, 8: LightActiveDistance
…
Now we will compare these data with the previously loaded hourly data.
In the code below, note the combination of the functions `hours` which
transforms a number to hours and `hour` which extracts the hour info
from a date time.

``` r
minuteCalories 
```

    ## # A tibble: 1,346,220 x 3
    ##    Id         ActivityMinute      Calories
    ##    <chr>      <dttm>                 <dbl>
    ##  1 1503960366 2016-04-12 00:00:00    0.786
    ##  2 1503960366 2016-04-12 00:01:00    0.786
    ##  3 1503960366 2016-04-12 00:02:00    0.786
    ##  4 1503960366 2016-04-12 00:03:00    0.786
    ##  5 1503960366 2016-04-12 00:04:00    0.786
    ##  6 1503960366 2016-04-12 00:05:00    0.944
    ##  7 1503960366 2016-04-12 00:06:00    0.944
    ##  8 1503960366 2016-04-12 00:07:00    0.944
    ##  9 1503960366 2016-04-12 00:08:00    0.944
    ## 10 1503960366 2016-04-12 00:09:00    0.944
    ## # ... with 1,346,210 more rows

``` r
#Group the minuteCalories by hour and sum the cals. A column in the summerise function lets us check that we are not including hours where not all minutes are present
minuteCalories2hour <- minuteCalories %>% transmute(Id, 
                                                    ActivityHour = date(ActivityMinute) + hours(hour(ActivityMinute)), 
                                                    Calories) %>% group_by(Id, ActivityHour) %>% summarise(Calories = round(sum(Calories)), n_minutes = n())

minuteCalories2hour <- minuteCalories2hour %>% filter(n_minutes == 60) %>% select(-n_minutes)
setdiff(minuteCalories2hour, hourlyCalories)
```

    ## # A tibble: 338 x 3
    ## # Groups:   Id [19]
    ##    Id         ActivityHour        Calories
    ##    <chr>      <dttm>                 <dbl>
    ##  1 1503960366 2016-05-11 21:00:00       91
    ##  2 1503960366 2016-05-11 22:00:00       47
    ##  3 1503960366 2016-05-11 23:00:00       47
    ##  4 1503960366 2016-05-12 00:00:00       47
    ##  5 1503960366 2016-05-12 01:00:00       47
    ##  6 1503960366 2016-05-12 02:00:00       47
    ##  7 1503960366 2016-05-12 03:00:00       47
    ##  8 1503960366 2016-05-12 04:00:00       47
    ##  9 1503960366 2016-05-12 05:00:00       47
    ## 10 1503960366 2016-05-12 06:00:00       47
    ## # ... with 328 more rows
…
