…
``` r
### Compare with hourly data
left_join(hourlyActivity, minute2hour, by = join_by(Id, ActivityHour)) %>% drop_na() %>%
    transmute(Id, ActivityHour, diffCal = Calories.x - Calories.y,
              diffAvgInt = AverageIntensity.x - AverageIntensity.y,
              diffStep = StepTotal.x - StepTotal.y, 
              diffTotInt = TotalIntensity.x - TotalIntensity.y) %>% filter(diffCal > 0 | diffAvgInt > 0 | diffStep > 0)
```

    ## # A tibble: 9,513 x 6
    ##    Id         ActivityHour        diffCal  diffAvgInt diffStep diffTotInt
    ##    <chr>      <dttm>                <dbl>       <dbl>    <dbl>      <dbl>
    ##  1 1503960366 2016-03-12 09:00:00       0 0.000000333        0          0
    ##  2 1503960366 2016-03-12 11:00:00       0 0.000000333        0          0
    ##  3 1503960366 2016-03-12 14:00:00       0 0.000000333        0          0
    ##  4 1503960366 2016-03-12 20:00:00       0 0.000000333        0          0
    ##  5 1503960366 2016-03-13 02:00:00       0 0.000000333        0          0
    ##  6 1503960366 2016-03-13 08:00:00       0 0.000000333        0          0
    ##  7 1503960366 2016-03-13 10:00:00       0 0.000000333        0          0
    ##  8 1503960366 2016-03-13 11:00:00       0 0.000000333        0          0
    ##  9 1503960366 2016-03-13 16:00:00       0 0.000000333        0          0
    ## 10 1503960366 2016-03-13 20:00:00       0 0.000000333        0          0
    ## # ... with 9,503 more rows
…
